# Blender MTL File: 'None'
# Material Count: 1

newmtl Material.001
Ns 490.306104
Ka 1.000000 1.000000 1.000000
Kd 0.009019 0.009019 0.009019
Ks 0.500000 0.500000 0.500000
Ke 0.003996 0.003996 0.003996
Ni 1.450000
d 1.000000
illum 3
