# Blender v2.91.2 OBJ File: ''
# www.blender.org
o Cube
v 1.000000 -1.000000 -1.000000
v 1.000000 -1.000000 1.000000
v -1.000000 -1.000000 -1.000000
v -1.000000 -1.000000 1.000000
v 0.264947 3.221302 -0.219616
v 0.707675 3.036046 -0.602039
v 0.371983 3.023319 0.132682
v 0.604352 2.621908 0.342138
v -0.209413 3.161114 -0.343862
v -0.364464 3.096234 -0.477793
v -0.264947 3.088406 0.219616
v -0.718383 2.380287 0.616618
v 0.718383 2.380287 0.616618
v 0.264947 3.088406 0.219616
v 0.335303 3.118986 -0.323455
v 0.641150 3.127336 -0.492860
v -0.264947 3.221302 -0.219616
v -0.707675 3.036046 -0.602039
vt 0.594102 0.750000
vt 0.375000 1.000000
vt 0.375000 0.750000
vt 0.594102 0.000000
vt 0.375000 0.250000
vt 0.375000 0.000000
vt 0.375000 0.500000
vt 0.125000 0.750000
vt 0.125000 0.500000
vt 0.701201 0.576201
vt 0.798799 0.673799
vt 0.701201 0.673799
vt 0.625000 0.750000
vt 0.678588 0.652834
vt 0.626797 0.517681
vt 0.689520 0.551444
vt 0.875000 0.536903
vt 0.875000 0.750000
vt 0.814888 0.524757
vt 0.787913 0.551444
vt 0.602434 0.500000
vt 0.619191 0.695793
vt 0.798799 0.576201
vt 0.625000 0.500000
vt 0.875000 0.500000
vt 0.594102 1.000000
vt 0.602434 0.250000
vt 0.636036 0.524757
vn 0.0000 0.1127 0.9936
vn -0.9965 0.0830 0.0000
vn 0.0000 -1.0000 0.0000
vn -0.0000 0.9571 0.2896
vn 0.9965 0.0830 0.0000
vn 0.0000 0.4890 0.8723
vn 0.0831 0.9766 0.1982
vn -0.6969 0.6341 0.3351
vn 0.0853 0.8544 -0.5126
vn 0.0000 0.0981 -0.9952
vn 0.7597 0.6111 0.2223
vn 0.6328 0.7411 0.2242
vn 0.9006 0.3532 0.2535
vn 0.0000 0.9000 -0.4360
vn 0.0821 0.7372 -0.6707
vn -0.9972 0.0694 0.0286
vn 0.9972 0.0694 0.0286
vn 0.6890 0.6062 0.3973
vn -0.5454 0.8023 0.2427
vn -0.0310 0.9995 -0.0067
vn 0.6900 0.6060 0.3959
vn 0.8436 0.5351 0.0444
vn 0.5965 0.7089 0.3762
vn -0.0332 0.7567 -0.6529
s off
f 13/1/1 4/2/1 2/3/1
f 12/4/2 3/5/2 4/6/2
f 1/7/3 4/8/3 3/9/3
f 5/10/4 11/11/4 14/12/4
f 1/7/5 13/1/5 2/3/5
f 11/11/6 13/13/6 14/12/6
f 7/14/7 16/15/7 15/16/7
f 11/11/8 18/17/8 12/18/8
f 15/16/9 10/19/9 9/20/9
f 3/5/10 6/21/10 1/7/10
f 8/22/11 14/12/11 13/1/11
f 7/14/12 5/10/12 14/12/12
f 8/22/13 6/21/13 16/15/13
f 10/19/14 17/23/14 9/20/14
f 9/20/15 5/10/15 15/16/15
f 10/19/14 6/24/14 18/25/14
f 13/1/1 12/26/1 4/2/1
f 12/4/16 18/27/16 3/5/16
f 1/7/3 2/3/3 4/8/3
f 5/10/4 17/23/4 11/11/4
f 1/7/17 6/21/17 13/1/17
f 11/11/6 12/18/6 13/13/6
f 7/14/18 8/22/18 16/15/18
f 11/11/19 17/23/19 18/17/19
f 15/16/20 16/28/20 10/19/20
f 3/5/10 18/27/10 6/21/10
f 8/22/21 7/14/21 14/12/21
f 7/14/22 15/16/22 5/10/22
f 8/22/23 13/1/23 6/21/23
f 10/19/14 18/25/14 17/23/14
f 9/20/14 17/23/14 5/10/14
f 10/19/24 16/28/24 6/24/24
