# Blender v2.90.1 OBJ File: ''
# www.blender.org
mtllib Ship001.mtl
o Cone_Cone.001
v 0.000000 -1.087772 0.483490
v 0.195090 -1.071691 0.494007
v 0.382683 -1.024065 0.525152
v 0.555570 -1.026467 0.523582
v 0.707107 -1.017555 0.529410
v 0.831470 -1.012286 0.532855
v 1.479165 -0.867593 0.627478
v 1.689526 -0.710591 0.730151
v 1.908074 -0.547315 0.836927
v 1.689526 -0.384039 0.943703
v 1.479165 -0.311954 0.990843
v 0.831470 -0.082343 1.140999
v 0.707107 0.044482 1.223937
v 0.555570 0.148564 1.292003
v 0.382683 0.225905 1.342580
v 0.195090 0.273531 1.373725
v -0.000000 0.289612 1.384242
v -0.195091 0.273530 1.373725
v -0.382684 0.225904 1.342580
v -0.555571 0.148564 1.292002
v -0.707107 0.044481 1.223937
v -0.831470 -0.082344 1.140998
v -1.627874 -0.317983 0.986900
v -1.839817 -0.384039 0.943702
v -2.034635 -0.547316 0.836926
v -1.839817 -0.710592 0.730150
v -1.627874 -0.867594 0.627478
v -0.831469 -1.012287 0.532854
v -0.707106 -1.017556 0.529409
v -0.555569 -1.026467 0.523581
v -0.382682 -1.024065 0.525152
v -0.195089 -1.071691 0.494007
v 0.000000 0.547315 -0.836927
vt 0.449553 0.116663
vt 0.250000 0.250000
vt 0.419706 0.080294
vt 0.383337 0.050447
vt 0.341844 0.028269
vt 0.296822 0.014612
vt 0.250000 0.010000
vt 0.203178 0.014612
vt 0.158156 0.028269
vt 0.116663 0.050447
vt 0.080294 0.080294
vt 0.050447 0.116663
vt 0.250000 0.490000
vt 0.296822 0.485388
vt 0.341844 0.471731
vt 0.383337 0.449553
vt 0.419706 0.419706
vt 0.449553 0.383337
vt 0.471731 0.341844
vt 0.485388 0.296822
vt 0.490000 0.250000
vt 0.485388 0.203178
vt 0.471731 0.158156
vt 0.028269 0.158156
vt 0.014611 0.203179
vt 0.010000 0.250000
vt 0.014612 0.296822
vt 0.028269 0.341844
vt 0.050447 0.383337
vt 0.080295 0.419706
vt 0.116663 0.449553
vt 0.158156 0.471731
vt 0.750000 0.490000
vt 0.796822 0.485388
vt 0.841844 0.471731
vt 0.883337 0.449553
vt 0.919706 0.419706
vt 0.949553 0.383337
vt 0.971731 0.341844
vt 0.985388 0.296822
vt 0.990000 0.250000
vt 0.985388 0.203178
vt 0.971731 0.158156
vt 0.949553 0.116663
vt 0.919706 0.080294
vt 0.883337 0.050447
vt 0.841844 0.028269
vt 0.796822 0.014612
vt 0.750000 0.010000
vt 0.703178 0.014612
vt 0.658156 0.028269
vt 0.616663 0.050447
vt 0.580294 0.080294
vt 0.550447 0.116663
vt 0.528269 0.158156
vt 0.514611 0.203179
vt 0.510000 0.250000
vt 0.514612 0.296822
vt 0.528269 0.341844
vt 0.550447 0.383337
vt 0.580295 0.419706
vt 0.616663 0.449553
vt 0.658156 0.471731
vt 0.703179 0.485389
vt 0.203179 0.485389
vn 0.6921 0.7192 -0.0620
vn 0.5680 0.8230 0.0059
vn 0.4220 0.9046 0.0593
vn 0.2599 0.9608 0.0961
vn 0.0878 0.9895 0.1148
vn -0.0878 0.9895 0.1148
vn -0.2599 0.9608 0.0961
vn -0.4220 0.9046 0.0593
vn -0.5680 0.8230 0.0059
vn -0.6921 0.7192 -0.0620
vn 0.0933 -0.6255 -0.7746
vn 0.2758 -0.5904 -0.7586
vn -0.0160 -0.6571 -0.7536
vn 0.0670 -0.6389 -0.7664
vn 0.0484 -0.6444 -0.7631
vn 0.2414 -0.5645 -0.7893
vn 0.5618 -0.2339 -0.7935
vn 0.5621 -0.2335 -0.7934
vn 0.5621 0.8205 -0.1042
vn 0.3505 0.9243 0.1509
vn 0.3599 0.9221 0.1423
vn -0.3094 0.9360 0.1679
vn -0.3226 0.9337 0.1550
vn -0.5743 0.7997 -0.1751
vn -0.5743 -0.1602 -0.8028
vn -0.5474 -0.2090 -0.8104
vn -0.1996 -0.5844 -0.7865
vn -0.0484 -0.6444 -0.7631
vn -0.0670 -0.6389 -0.7664
vn 0.0160 -0.6571 -0.7536
vn 0.0000 -0.5473 0.8369
vn -0.2758 -0.5904 -0.7586
vn -0.0933 -0.6255 -0.7746
usemtl Cockpit
s off
f 12/1/1 33/2/1 13/3/1
f 13/3/2 33/2/2 14/4/2
f 14/4/3 33/2/3 15/5/3
f 15/5/4 33/2/4 16/6/4
f 16/6/5 33/2/5 17/7/5
f 17/7/6 33/2/6 18/8/6
f 18/8/7 33/2/7 19/9/7
f 19/9/8 33/2/8 20/10/8
f 20/10/9 33/2/9 21/11/9
f 21/11/10 33/2/10 22/12/10
usemtl shipMetal
f 1/13/11 33/2/11 2/14/11
f 2/14/12 33/2/12 3/15/12
f 3/15/13 33/2/13 4/16/13
f 4/16/14 33/2/14 5/17/14
f 5/17/15 33/2/15 6/18/15
f 6/18/16 33/2/16 7/19/16
f 7/19/17 33/2/17 8/20/17
f 8/20/18 33/2/18 9/21/18
f 9/21/19 33/2/19 10/22/19
f 10/22/20 33/2/20 11/23/20
f 11/23/21 33/2/21 12/1/21
f 22/12/22 33/2/22 23/24/22
f 23/24/23 33/2/23 24/25/23
f 24/25/24 33/2/24 25/26/24
f 25/26/25 33/2/25 26/27/25
f 26/27/26 33/2/26 27/28/26
f 27/28/27 33/2/27 28/29/27
f 28/29/28 33/2/28 29/30/28
f 29/30/29 33/2/29 30/31/29
f 30/31/30 33/2/30 31/32/30
f 1/33/31 2/34/31 3/35/31 4/36/31 5/37/31 6/38/31 7/39/31 8/40/31 9/41/31 10/42/31 11/43/31 12/44/31 13/45/31 14/46/31 15/47/31 16/48/31 17/49/31 18/50/31 19/51/31 20/52/31 21/53/31 22/54/31 23/55/31 24/56/31 25/57/31 26/58/31 27/59/31 28/60/31 29/61/31 30/62/31 31/63/31 32/64/31
f 31/32/32 33/2/32 32/65/32
f 32/65/33 33/2/33 1/13/33
